{
  "master_uri": "PYRO:master@127.0.0.1:1298",
  "data_path": "/",
  "node_id": "node1",
  "host": "127.0.0.1",
  "port": 9286,
  "serializer": "msgpack",
  "wait_time": 1,
  "max_doc_count": 1000
}
